[
  {
    "id": "regolith_processing",
    "name": "Regolith Processing",
    "description": "",
    "category": "processing",
    "unlocked": true,
    "decrypted": true,
    "unlock_requirements": [],
    "decryption_requirements": []
  },
  {
    "id": "molten_regolith_electrolysis",
    "name": "Molten Regolith Electrolysis",
    "description": "",
    "category": "processing",
    "unlocked": true,
    "decrypted": true,
    "unlock_requirements": [],
    "decryption_requirements": []
  },
  {
    "id": "vacuum_distillation",
    "name": "Vacuum Distillation",
    "description": "",
    "category": "processing",
    "unlocked": true,
    "decrypted": false,
    "unlock_requirements": [],
    "decryption_requirements": []
  },
  {
    "id": "magnetic_liquid_separation",
    "name": "Magnetic Liquid Separation",
    "description": "",
    "category": "processing",
    "unlocked": true,
    "decrypted": false,
    "unlock_requirements": [],
    "decryption_requirements": []
  },
  {
    "id": "metal_refining",
    "name": "Metal Refining",
    "description": "",
    "category": "processing",
    "unlocked": true,
    "decrypted": false,
    "unlock_requirements": [],
    "decryption_requirements": []
  },
  {
    "id": "flourine_processing",
    "name": "Fluorine Processing",
    "description": "",
    "category": "processing",
    "unlocked": false,
    "decrypted": false,
    "unlock_requirements": [],
    "decryption_requirements": []
  },
  {
    "id": "ionic_salt_processing",
    "name": "Ionic Salt Processing",
    "description": "",
    "category": "processing",
    "unlocked": false,
    "decrypted": false,
    "unlock_requirements": [],
    "decryption_requirements": []
  },
  {
    "id": "mongrel_alloy_bot",
    "name": "Mongrel Alloy Bot",
    "description": "",
    "category": "bot",
    "unlocked": false,
    "decrypted": true,
    "unlock_requirements": [],
    "decryption_requirements": []
  },
  {
    "id": "iron_bot",
    "name": "Iron Bot",
    "description": "",
    "category": "bot",
    "unlocked": false,
    "decrypted": false,
    "unlock_requirements": [],
    "decryption_requirements": []
  },
  {
    "id": "specialized_bot",
    "name": "Specialized Bot",
    "description": "",
    "category": "bot",
    "unlocked": false,
    "decrypted": false,
    "unlock_requirements": [],
    "decryption_requirements": []
  },
  {
    "id": "kreeper",
    "name": "KREEPer",
    "description": "",
    "category": "bot",
    "unlocked": false,
    "decrypted": false,
    "unlock_requirements": [],
    "decryption_requirements": []
  },
  {
    "id": "koh_battery",
    "name": "KOH Battery",
    "description": "",
    "category": "battery",
    "unlocked": false,
    "decrypted": true,
    "unlock_requirements": [],
    "decryption_requirements": []
  },
  {
    "id": "silver_oxide_battery",
    "name": "Silver-Oxide Battery",
    "description": "",
    "category": "battery",
    "unlocked": false,
    "decrypted": false,
    "unlock_requirements": [],
    "decryption_requirements": []
  },
  {
    "id": "silver_zinc_battery",
    "name": "Silver-Zinc Battery",
    "description": "",
    "category": "battery",
    "unlocked": false,
    "decrypted": false,
    "unlock_requirements": [],
    "decryption_requirements": []
  },
  {
    "id": "titaniumish_battery",
    "name": "Titanium-ish Battery",
    "description": "",
    "category": "battery",
    "unlocked": false,
    "decrypted": false,
    "unlock_requirements": [],
    "decryption_requirements": []
  },
  {
    "id": "solar_panel",
    "name": "Solar Panel",
    "description": "",
    "category": "power",
    "unlocked": false,
    "decrypted": false,
    "unlock_requirements": [],
    "decryption_requirements": []
  },
  {
    "id": "mirror_array",
    "name": "Mirror Array",
    "description": "",
    "category": "power",
    "unlocked": false,
    "decrypted": false,
    "unlock_requirements": [],
    "decryption_requirements": []
  },
  {
    "id": "quantum_frame",
    "name": "Quantum Frame",
    "description": "",
    "category": "power",
    "unlocked": false,
    "decrypted": false,
    "unlock_requirements": [],
    "decryption_requirements": []
  }
]
